{
	"name": "ATmega328P",
	"description": "The ATMEGA328P is a low-power CMOS 8-bit microcontroller based on the AVR enhanced RISC architecture. By executing powerful instructions in a single clock cycle, the ATmega328P-PU achieves throughputs approaching 1 MIPS per MHz allowing the system designer to optimize power consumption versus processing speed.",
	"type": "DIP",
	"size": 3,
	"connectors": [
		{
			"name": "RST",
			"description": "Programmed as input pin, Unprogrammed as reset pin"
		},
		{
			"name": "D0",
			"description": "Digital Pin 0, UART RX Pin"
		},
		{
			"name": "D1",
			"description": "Digital Pin 1, UART TX Pin"
		},
		{
			"name": "D2",
			"description": "Digital Pin 2"
		},
		{
			"name": "D3~",
			"description": "Digital Pin 3, 10-Bit Pulse Width Modulation"
		},
		{
			"name": "D4",
			"description": "Digital Pin 4"
		},
		{
			"name": "VCC",
			"description": "Supply Voltage (1.8V ~ 5.5V)"
		},
		{
			"name": "GND",
			"description": "Ground"
		},
		{
			"name": "C0",
			"description": "Crystal pin 0"
		},
		{
			"name": "C1",
			"description": "Crystal pin 1"
		},
		{
			"name": "D5~",
			"description": "Digital Pin 5, 10-Bit Pulse Width Modulation"
		},
		{
			"name": "D6~",
			"description": "Digital Pin 6, 10-Bit Pulse Width Modulation"
		},
		{
			"name": "D7",
			"description": "Digital Pin 7"
		},
		{
			"name": "D8",
			"description": "Digital Pin 8"
		},
		{
			"name": "D9~",
			"description": "Digital Pin 9, 10-Bit Pulse Width Modulation"
		},
		{
			"name": "D10~",
			"description": "Digital Pin 10, Hardware SPI Slave Select Pin, 10-Bit Pulse Width Modulation"
		},
		{
			"name": "D11~",
			"description": "Digital Pin 11, Hardware SPI Master Out Slave In Pin, 10-Bit Pulse Width Modulation"
		},
		{
			"name": "D12",
			"description": "Digital Pin 12, Hardware SPI Master In Slave Out Pin"
		},
		{
			"name": "D13",
			"description": "Digital Pin 13, Hardware SPI Serial Clock Pin"
		},
		{
			"name": "AVCC",
			"description": "Power for Internal ADC Converter"
		},
		{
			"name": "AREF",
			"description": "Analog Reference Pin for ADC"
		},
		{
			"name": "GND",
			"description": "Ground"
		},
		{
			"name": "A0",
			"description": "12-bit Analog Signal Pin 0"
		},
		{
			"name": "A1",
			"description": "12-bit Analog Signal Pin 1"
		},
		{
			"name": "A2",
			"description": "12-bit Analog Signal Pin 2"
		},
		{
			"name": "A3",
			"description": "12-bit Analog Signal Pin 3"
		},
		{
			"name": "A4",
			"description": "12-bit Analog Signal Pin 4, Hardware I2C Serial Data Pin"
		},
		{
			"name": "A5",
			"description": "12-bit Analog Signal Pin 5, Hardware I2C Serial Clock Pin"
		}
	],
	"buses": [
		{
			"name": "GND",
			"nodes": [7, 21]
		}
	]
}